index
…
# Calculate the trend for all species
bor_by_year <- bor_nestlings %>% 
  group_by(Year, Species) %>% 
  summarize(BirdByYear = n()) %>% 
  ungroup()

`summarise()` has grouped output by 'Year'. You can override using the
`.groups` argument.

bor_by_year

# A tibble: 2,330 × 3
    Year Species BirdByYear
   <dbl> <chr>        <int>
 1  1975 ACCGEN         278
 2  1975 ACCNIS          34
 3  1975 AEGFUN          84
 4  1975 ALCTOR         169
 5  1975 APUAPU         102
 6  1975 ASIOTU          40
 7  1975 BUTBUT         150
 8  1975 BUTLAG          32
 9  1975 CARERY          33
10  1975 CEPGRY         430
# ℹ 2,320 more rows
…
